<?xml version="1.0" encoding="utf-8"?>
<!-- Generator: Adobe Illustrator 25.2.3, SVG Export Plug-In . SVG Version: 6.00 Build 0)  -->
<svg version="1.1" id="Layer_1" xmlns="http://www.w3.org/2000/svg" xmlns:xlink="http://www.w3.org/1999/xlink" x="0px" y="0px"
	 viewBox="0 0 343.7 50" style="enable-background:new 0 0 343.7 50;" xml:space="preserve">
<style type="text/css">
	.st0{fill:#FFFFFF;}
</style>
<g>
	<g>
		<polygon class="st0" points="2.1,2.1 25,2.1 25,0 0,0 0,25 2.1,25 		"/>
		<polygon class="st0" points="50,2.1 50,0 29.2,0 29.2,29.2 0,29.2 0,31.2 29.2,31.2 29.2,35.4 0,35.4 0,37.5 29.2,37.5 29.2,41.7 
			0,41.7 0,43.8 29.2,43.8 29.2,47.9 0,47.9 0,50 31.2,50 31.2,2.1 		"/>
		<polygon class="st0" points="50,8.3 50,6.2 35.4,6.2 35.4,50 37.5,50 37.5,8.3 		"/>
	</g>
	<polyline class="st0" points="47.9,18.8 47.9,50 50,50 50,18.8 	"/>
	<polygon class="st0" points="43.8,50 43.8,14.6 50,14.6 50,12.5 41.7,12.5 41.7,50 	"/>
	<g>
		<path class="st0" d="M68.1,25c0-9.9,7.3-17.2,17.2-17.2c7.2,0,13.2,4.2,15.6,10.8h-2.7c-2.2-5-7.1-8.3-13-8.3
			c-8.2,0-14.5,6.4-14.5,14.8S77,39.8,85.2,39.8c5.9,0,10.8-3.3,13-8.3h2.7c-2.4,6.6-8.4,10.8-15.6,10.8
			C75.5,42.2,68.1,34.9,68.1,25z"/>
		<path class="st0" d="M126.3,39.2v2.4h-19.5V8.3h2.5v30.9H126.3z"/>
		<path class="st0" d="M131.4,8.3h2.5v33.4h-2.5V8.3z"/>
		<path class="st0" d="M144.8,10.7v12.7h17v2.4h-17v15.9h-2.5V8.3h20.6v2.4H144.8z"/>
		<path class="st0" d="M170.7,10.7v12.7h17v2.4h-17v15.9h-2.5V8.3h20.6v2.4H170.7z"/>
		<path class="st0" d="M236.1,8.3l-9.7,33.4h-3.3l-3.5-12.1l-5.1-18.2H214L209,29.6l-3.5,12.1h-3.3l-9.7-33.4h2.6l4.7,16l4.1,14.8
			l4.1-14.8l4.6-16h3.4l4.6,16l4.1,14.8l4.1-14.8l4.6-16H236.1z"/>
		<path class="st0" d="M258.9,30.6h-16.5l-4.5,11.1h-2.7l13.8-33.4h3.4l13.8,33.4h-2.7L258.9,30.6z M257.9,28.2l-7.2-17.6l-7.2,17.6
			H257.9z"/>
		<path class="st0" d="M288.2,10.7h-11.3v30.9h-2.5V10.7H263V8.3h25.2V10.7z"/>
		<path class="st0" d="M295.2,10.7v12.5h17v2.4h-17v13.6h18.1v2.4h-20.6V8.3h20.6v2.4H295.2z"/>
		<path class="st0" d="M329,28.3h-7.7v13.4h-2.6V8.3h12.6c7.5,0,11.3,4.3,11.3,10c0,5.5-3.6,9.7-10.5,10l11.5,13.4h-3.2L329,28.3z
			 M321.4,26h9.9c6.2,0,8.9-3.5,8.9-7.7c0-4.2-2.8-7.6-8.9-7.6h-9.9V26z"/>
	</g>
</g>
</svg>
