<?xml version="1.0" encoding="utf-8"?>
<!-- Generator: Adobe Illustrator 25.2.3, SVG Export Plug-In . SVG Version: 6.00 Build 0)  -->
<svg version="1.1" id="Isolation_Mode" xmlns="http://www.w3.org/2000/svg" xmlns:xlink="http://www.w3.org/1999/xlink" x="0px"
	 y="0px" viewBox="0 0 20.6 28" style="enable-background:new 0 0 20.6 28;" xml:space="preserve">
<style type="text/css">
	.st0{fill:none;stroke:#FFFFFF;stroke-linecap:round;stroke-linejoin:round;stroke-miterlimit:10;}
	.st1{fill:#FFFFFF;}
</style>
<path class="st0" d="M16.3,10.5V6.5c0-3.3-2.7-6-6-6c-3.3,0-6,2.7-6,6v3.9"/>
<path class="st0" d="M20.1,25.5c0,1.1-0.9,2-2,2H2.5c-1.1,0-2-0.9-2-2v-13c0-1.1,0.9-2,2-2H18c1.1,0,2,0.9,2,2V25.5z"/>
<path class="st1" d="M10.3,21.2c-0.4,0-0.8-0.3-0.8-0.8v-2.2c0-0.4,0.3-0.8,0.8-0.8s0.8,0.3,0.8,0.8v2.2
	C11,20.9,10.7,21.2,10.3,21.2z"/>
<path class="st1" d="M11.8,18.3c0,0.9-0.7,1.6-1.6,1.6c-0.9,0-1.6-0.7-1.6-1.6c0-0.9,0.7-1.6,1.6-1.6C11.1,16.8,11.8,17.5,11.8,18.3
	z"/>
</svg>
