<?xml version="1.0" encoding="utf-8"?>
<!-- Generator: Adobe Illustrator 25.2.3, SVG Export Plug-In . SVG Version: 6.00 Build 0)  -->
<svg version="1.1" id="time" xmlns="http://www.w3.org/2000/svg" xmlns:xlink="http://www.w3.org/1999/xlink" x="0px" y="0px"
	 viewBox="0 0 1550 1159.9" style="enable-background:new 0 0 1550 1159.9;" xml:space="preserve">
<style type="text/css">
	.st0{fill:none;stroke:#30A8E0;stroke-width:3;stroke-miterlimit:10;}
	.st1{fill:#30A8E0;}
</style>
<line class="st0" x1="194" y1="431.7" x2="1268.3" y2="431.7"/>
<path class="st0" d="M1268.3,583.5c41.9,0,75.9-34,75.9-75.9s-34-75.9-75.9-75.9"/>
<path class="st0" d="M335.1,583.5c-78.4,0-142,63.6-142,142s63.6,142,142,142"/>
<line class="st0" x1="333" y1="867.7" x2="1353.2" y2="867.7"/>
<line class="st0" x1="335.1" y1="583.5" x2="1268.3" y2="583.5"/>
<polygon class="st1" points="1357.5,867.7 1348.8,876.4 1348.8,858.9 "/>
</svg>
